https://raw.githubusercontent.com/BirkhoffLee/wechall/master/exploit/Limited%20Access%20Too/README.md
http://aizuctf.hatenablog.jp/entry/2014/11/28/213307
http://www.nowhere.co.jp/blog/archives/20141128-213307.html
https://medium.com/bugbountywriteup/wechall-wargame-solutions-76f60ea39b16
