https://raw.githubusercontent.com/To1ne/cryptopals-c/master/challenge_02/main.c
https://raw.githubusercontent.com/shierve/matasano-crypto-challenges/master/set2.cc
https://raw.githubusercontent.com/adamenger/cryptopals-solutions/master/2/two.go
https://raw.githubusercontent.com/yaychris/cryptopals/master/src/challenge2.rs
https://raw.githubusercontent.com/Daeinar/cryptopals/master/src/c02.rs
https://raw.githubusercontent.com/jaybosamiya/cryptopals-solutions/master/set1/2/run.py
https://raw.githubusercontent.com/akalin/cryptopals-python3/master/challenge2.py
https://www.youtube.com/watch?v=oqrPB6YQQMo
https://raw.githubusercontent.com/aklap/cryptopals-solutions/master/set_1/challenge2/solution2.py
https://raw.githubusercontent.com/ricpacca/cryptopals/master/S1C02.py
https://raw.githubusercontent.com/technion/matasano_challenge/master/set1/chal2/chal2.rb
