https://raw.githubusercontent.com/ArnoldM904/CodeAbbey_Solutions/master/Python/id049-Rock_Paper_Scissors.py
https://raw.githubusercontent.com/gravoo/codeabbey/master/Rock%20Paper%20Scissors.cpp
https://raw.githubusercontent.com/Maximization/CodeAbbey/master/src/RockPaperScissors.java
https://raw.githubusercontent.com/AleksandrSD/CodeAbbeyProblems/master/Problem49/Program.cs
https://raw.githubusercontent.com/mmcdon20/code_abbey/master/src/main/scala/Abbey049.scala
