https://rundata.wordpress.com/2013/03/21/overthewire-bandit-wargame-solutions-1-24/
https://infamoussyn.com/2013/11/08/overthewire-bandit-level-0-25-writeup-completed/
https://jdow.io/blog/2017/12/16/overthewire-bandit-wargame-walkthrough/#level-7---8
https://www.yalpski.net/bandit-wargame/bandit-walkthrough-level-8
http://sp4hack.blogspot.com.co/2014/01/overthewire-bandit-level-8-to-level-9.html
https://raw.githubusercontent.com/luceatnobis/challenges/master/overthewire.org/bandit/8/8.py
https://raw.githubusercontent.com/Cathon/mySolutions/master/overthewire/Bandit/Level_8.md
https://medium.com/@Kan1shka9/overthewire-wargames-bandit-walkthrough-df2b86826c67
https://github.com/milescrabill/overthewire-solutions/blob/master/Bandit.md#level-8
https://www.youtube.com/watch?v=kQavV7biOJY
https://www.youtube.com/watch?v=34_DDIAkxdY
https://www.youtube.com/watch?v=NReJMvYLWQI
https://www.youtube.com/watch?v=XzvzWzVPkeE
https://www.youtube.com/watch?v=Hzh7Hzpr1GY
