https://raw.githubusercontent.com/AkashChandrakar/codeforces-solutions/master/c%2B%2B/279-B-14788692.cpp
https://raw.githubusercontent.com/adityagupta1089/Codeforces-Solutions/master/P279B.java
https://raw.githubusercontent.com/changyuheng/codeforces-solutions/master/279b.py
