http://touhidshaikh.com/blog/?p=475
https://www.rootnetsec.com/vulnhub-dina/
https://amonsec.net/ctf/dina-ctf-walkthrough
https://latesthackingnews.com/2018/08/22/dina-1-0-1-vulnhub-ctf-challenge-walkthrough/
https://walkingdeadhun.wordpress.com/2017/10/21/dina-1-0-walkthrough-vulnhub/
https://raw.githubusercontent.com/punkinnovation/dina1-0-1/master/README.md
https://www.sevenlayers.com/index.php/94-vulnhub-dina-1-0-1-walkthrough
https://medium.com/@honze_net/vulnhub-dina-1-0-1-write-up-deutsch-c31c70cafb73
https://alexandervoidstar.wordpress.com/2018/01/07/ctf-writeup-dina-1-0/
http://www.hackingarticles.in/hack-dina-vm-ctf-challenge/
