https://blog.g0tmi1k.com/2011/08/holynix-level-2/
http://fallensnow-jack.blogspot.com/2012/06/learning-kioptrix-level-one-samba.html
http://blog.techorganic.com/2012/04/holynix-hacking-challenge-part-2_09.html?view=sidebar
https://l33thacker.com/holynix-v2-walkthrough/
http://www.cyberry.co.uk/vulnhub/holynix-v2/
