https://raw.githubusercontent.com/IncludeZ/root-me/master/Web-Server/File%20Upload%20-%20Double%20Extensions
https://raw.githubusercontent.com/anomen-s/programming-challenges/master/root-me.org/Web-Server/File-upload-double-extensions/test.php.png
http://www.cnblogs.com/joy-nick/p/5569475.html
https://bitbelle.wordpress.com/2018/01/10/root-me-web-server-challenge-solutions/
