https://raw.githubusercontent.com/pascal-bourut/codeeval-challenges/master/moderate/75%20-%20Flavius%20josephus/75.js
https://raw.githubusercontent.com/pascal-bourut/codeeval-challenges/master/moderate/75%20-%20Flavius%20josephus/75.php
https://raw.githubusercontent.com/nikai3d/ce-challenges/master/moderate/flavius_josephus.rb
https://raw.githubusercontent.com/nikai3d/ce-challenges/master/moderate/flavius_josephus.lua
https://raw.githubusercontent.com/nikai3d/ce-challenges/master/moderate/flavius_josephus.hs
https://raw.githubusercontent.com/nikai3d/ce-challenges/master/moderate/flavius_josephus.go
https://raw.githubusercontent.com/nikai3d/ce-challenges/master/moderate/flavius_josephus.c
