https://raw.githubusercontent.com/IncludeZ/root-me/master/Web-Server/Directory%20Traversal
https://raw.githubusercontent.com/anomen-s/programming-challenges/master/root-me.org/Web-Server/Directory-traversal/run.sh
http://www.cnblogs.com/joy-nick/p/5569475.html
https://bitbelle.wordpress.com/2018/01/10/root-me-web-server-challenge-solutions/
