https://github.com/luceatnobis/challenges/tree/master/overthewire.org/natas/13
https://infamoussyn.com/2014/02/05/overthewire-natas-level-0-16-writeup-updated/#level13
http://r4stl1n.github.io/2014/12/27/OverTheWire-Natas8-16.html#natas-13
https://raw.githubusercontent.com/lv22/otw-natas/master/L13/level13.txt
https://routley.io/tech/2017/06/17/natas.html
https://www.youtube.com/watch?v=1IBuV6_Ol28&t=2148s
