19
34 13 559826427
13 6 1158
21 13 128309
10 3 99
36 14 2785798785
25 1 17
27 2 250
32 15 463639177
33 14 468066775
19 6 19849
30 11 42510063
19 4 2412
30 15 122049513
32 16 432597716
32 15 468107994
32 13 198205238
25 22 1518
27 15 12587103
18 9 29216
