https://raw.githubusercontent.com/rootulp/exercism/master/java/scrabble-score/src/main/java/Scrabble.java
https://raw.githubusercontent.com/rootulp/exercism/master/javascript/scrabble-score/scrabble-score.js
https://raw.githubusercontent.com/rootulp/exercism/master/python/scrabble-score/scrabble.py
https://raw.githubusercontent.com/rootulp/exercism/master/ruby/exercises/scrabble-score/scrabble.rb
