https://raw.githubusercontent.com/MaskRay/HackerRank/master/count-strings.cc
https://gist.githubusercontent.com/jianminchen/b1a7b92af1856a542167d4b82517bb8f/raw/3426cf8f3319d747b8b31e26091cc990305f3349/countString.cpp
https://raw.githubusercontent.com/pasha-kuznetsov/hackerrank/master/src/main/java/strings/regex_count/Solution.java
