https://raw.githubusercontent.com/nayuki/Project-Euler-solutions/master/java/p022.java
https://raw.githubusercontent.com/zsiciarz/euler.rs/master/src/solutions/problem22.rs
https://raw.githubusercontent.com/kdungs/euler/master/022/euler_22.py
https://www.mathblog.dk/project-euler-22-what-is-the-total-of-all-the-name-scores-in-the-file-of-first-names/
