https://www.youtube.com/watch?v=_m_LY7JO9MM
https://pastebin.com/FDKzkuac
https://thepcn3rd.blogspot.com/2015/04/vulnhub-pandoras-box-by-c0ne-level-1.html
http://jellevergeer.com/pandoras-box/
https://raw.githubusercontent.com/Henkru/vulnhub-solutions/master/pandora/level1/timing_attack.py
