https://gist.githubusercontent.com/anymd/8450736/raw/ac82c728c94f13590250183453ab72fae16d75d8/bridges.rb
https://raw.githubusercontent.com/mpillar/codeeval/master/2-hard/bay-bridges/main.py
https://raw.githubusercontent.com/pascal-bourut/codeeval-challenges/master/hard/109%20-%20Bay%20Bridges/main.js
https://raw.githubusercontent.com/pascal-bourut/codeeval-challenges/master/hard/109%20-%20Bay%20Bridges/main.php
