https://raw.githubusercontent.com/pluralism/CodeEval/master/Compressed%20Sequence.cpp
https://raw.githubusercontent.com/mneudert/codeeval/master/easy/compressed-sequence/js.js
https://raw.githubusercontent.com/mpillar/codeeval/master/0-easy/compressed-sequence/Main.java
https://gist.githubusercontent.com/yuheiomori/8627352/raw/cdea57cea4afdf85c02fe68069eb17897e0a576f/main.go
https://raw.githubusercontent.com/zhuli19901106/codeeval/master/easy/compressed-sequence(AC).py
https://raw.githubusercontent.com/leaen/Codeeval-solutions/master/compressed-sequence.lua
https://raw.githubusercontent.com/pascal-bourut/codeeval-challenges/master/easy/128%20-%20Compressed%20Sequence/128.php
