https://raw.githubusercontent.com/Dalimil/ProjectEuler/master/Project_Euler_Solutions/Problem_%2309_Special_Pythagorean_triplet.cpp
https://codereview.stackexchange.com/questions/90974/project-euler-9-in-c-special-pythagorean-triplet
https://www.mathblog.dk/pythagorean-triplets/
