https://raw.githubusercontent.com/ysmolsky/cryptopals-matasano-solutions/master/11/main.go
https://raw.githubusercontent.com/Daeinar/cryptopals/master/src/c11.rs
https://raw.githubusercontent.com/jaybosamiya/cryptopals-solutions/master/set2/11/run.py
https://raw.githubusercontent.com/akalin/cryptopals-python3/master/challenge11.py
https://raw.githubusercontent.com/technion/matasano_challenge/master/set2/chal11/chal11.rb
