https://maskray.me/blog/2013-12-02-redtigers-hackit-wargame
http://hacktracking.blogspot.com.co/2013/08/redtigers-hackit-wargame-level-2.html
https://joizel.readthedocs.io/ko/latest/wargame/web/[redtiger]%20level2.html
