https://raw.githubusercontent.com/igor-kutepov/codeabbey/master/src/main/java/com/kutepov/samples/codeabbey/BinaryHeap.java
https://raw.githubusercontent.com/chrisdfrey/code-abbey-solutions/master/binary-heap.py
https://raw.githubusercontent.com/JesseClarkND/codeabbey_in_C-NET/master/Binary%20Heap
