https://www.youtube.com/watch?v=38e-sxPWiuY
https://www.youtube.com/watch?v=yYhYnWo7AUU
https://drive.google.com/file/d/1x633bpIjWnLxQJidRxogYZw2cDO2MKaO/view
https://www.hackingarticles.in/hack-the-box-challenge-kotarak-walkthrough/
