https://www.youtube.com/watch?v=oaJdbYWU5Qo
https://www.youtube.com/watch?v=O6byOADKaZg
https://www.youtube.com/watch?v=EoxqOGTDV7A
https://adamluvshis.com/content/blacklight-vulnhub-walkthrough
https://latesthackingnews.com/2018/08/26/blacklight-vulnhub-ctf-challenge-walkthrough/
https://medium.com/egghunter/blacklight-1-vulnhub-walkthrough-c8e1f8f9953e
http://www.hackingarticles.in/hack-the-blacklight-1-ctf-challenge/
https://blog.barradell-johns.com/index.php/2018/08/28/blacklight-one-writeup/
https://greekhacking.gr/topic/46686-blacklight-vulnhub-ctf-challenge-walkthrough/
http://www.prodefence.org/blacklight-vulnhub-ctf-challenge-walkthrough/
https://www.peerlyst.com/posts/blacklight-vulnhub-ctf-walkthrough-motasem-hamdan
