https://raw.githubusercontent.com/nayuki/Project-Euler-solutions/master/java/p028.java
https://raw.githubusercontent.com/zsiciarz/euler.rs/master/src/solutions/problem28.rs
https://raw.githubusercontent.com/kdungs/euler/master/028/euler_28.py
https://www.mathblog.dk/project-euler-28-sum-diagonals-spiral/
