https://www.youtube.com/watch?v=PGmAV23NDhM
https://alexandervoidstar.wordpress.com/2015/08/01/hackthis-basic-level-3/
https://www.youtube.com/watch?v=Qgzmils_Xns
https://www.youtube.com/watch?v=u8qNT8H3aEo
https://www.youtube.com/watch?v=w_SNIGwBya4
https://www.youtube.com/watch?v=NdNA1s8zdH8
https://www.youtube.com/watch?v=Y3J-kd-wFZ8
https://www.youtube.com/watch?v=gNsyoh5nEdw
https://www.youtube.com/watch?v=Fadi6Zn9Zs0
https://www.youtube.com/watch?v=vyq_ewNaOBw
https://hackinblood.lasermark.co/basic-hackthis-co-uk-2/
