https://raw.githubusercontent.com/ysmolsky/cryptopals-matasano-solutions/master/17/main.go
https://raw.githubusercontent.com/Daeinar/cryptopals/master/src/c17.rs
https://raw.githubusercontent.com/jaybosamiya/cryptopals-solutions/master/set3/17/AES_128.py
https://raw.githubusercontent.com/jaybosamiya/cryptopals-solutions/master/set3/17/run.py
https://raw.githubusercontent.com/jaybosamiya/cryptopals-solutions/master/set3/17/oracles.py
https://raw.githubusercontent.com/akalin/cryptopals-python3/master/challenge17.py
https://raw.githubusercontent.com/technion/matasano_challenge/master/set3/chal17/chal17.rb
