https://raw.githubusercontent.com/mpillar/codeeval/master/0-easy/mersenne-prime/main.py
https://raw.githubusercontent.com/mpillar/codeeval/master/0-easy/mersenne-prime/main.cpp
https://raw.githubusercontent.com/StevenDunn/CodeEval/master/MersennePrimes/c/mp.c
https://raw.githubusercontent.com/nikai3d/ce-challenges/master/easy/mersenne_prime.rb
