https://raw.githubusercontent.com/nayuki/Project-Euler-solutions/master/java/p041.java
https://raw.githubusercontent.com/zsiciarz/euler.rs/master/src/solutions/problem41.rs
https://raw.githubusercontent.com/kdungs/euler/master/041/euler_41.py
https://www.mathblog.dk/project-euler-41-pandigital-prime/
