https://raw.githubusercontent.com/jaskaran1/Programming-Contests/master/SPOJ/STPAR.c
https://raw.githubusercontent.com/mintuhouse/spoj-solutions/master/95-stpar.cpp
https://raw.githubusercontent.com/lewin/SPOJ/master/stpar.java
https://raw.githubusercontent.com/kashsingh/SPOJ-Python-Solutions/master/STPAR.py
