https://www.youtube.com/watch?v=7ur4om1K98Y
https://www.youtube.com/watch?v=whXKM0ro0PE
https://www.youtube.com/watch?v=V5DO0UlBLHQ
https://www.youtube.com/watch?v=iZEEBcCRVvA
https://www.youtube.com/watch?v=cal6OJ35qDc
https://www.youtube.com/watch?v=42EiMQp7Ngs
https://www.youtube.com/watch?v=y_Z7WBNWVvs
https://www.youtube.com/watch?v=KggPA4trI64
https://0xdf.gitlab.io/2018/10/27/htb-bounty.html
https://m0nk3y.me/2018/08/23/hack-the-box-bounty/
https://zineausa.com/blog/2018/10/hackthebox-bounty-writeup/
https://video.hacking.reviews/2018/10/hackthebox-bounty.html
http://www.hackingarticles.in/hack-the-box-bounty-walkthrough/
https://medium.com/ctf-writeups/bounty-write-up-htb-9b01c934dfd2
https://veteransec.com/2018/10/27/hack-the-box-bounty-walkthrough/
http://www.boiteaklou.fr/writeup/tutorial/pentest/2018/10/28/HackTheBox-Bounty.html
https://boiteaklou.github.io/writeup/tutorial/pentest/2018/10/28/HackTheBox-Bounty.html
