https://raw.githubusercontent.com/ArnoldM904/CodeAbbey_Solutions/master/Python/id071-Fibonacci_Divisibility_Advanced.py
https://raw.githubusercontent.com/igor-kutepov/codeabbey/master/src/main/java/com/kutepov/samples/codeabbey/FibonacciDivisibilityAdvanced.java
https://raw.githubusercontent.com/JesseClarkND/codeabbey_in_C-NET/master/Fibonacci%20Divisibility%20Advanced
https://gitlab.com/CodeArtisan/codeabbey/raw/master/problem_71/solution.rkt
