https://github.com/milescrabill/overthewire-solutions/blob/master/Bandit.md#level-0
https://infamoussyn.com/2013/11/08/overthewire-bandit-level-0-25-writeup-completed/
https://jdow.io/blog/2017/12/16/overthewire-bandit-wargame-walkthrough/#level-0---1
https://medium.com/@Kan1shka9/overthewire-wargames-bandit-walkthrough-df2b86826c67
https://raw.githubusercontent.com/Cathon/mySolutions/master/overthewire/Bandit/Level_0.md
https://raw.githubusercontent.com/lv22/otw-natas/master/L00/level0.txt
https://rundata.wordpress.com/2013/03/21/overthewire-bandit-wargame-solutions-1-24/
https://www.youtube.com/watch?v=jn5Y3cOc-mM
https://www.youtube.com/watch?v=34_DDIAkxdY
https://www.youtube.com/watch?v=OOHTY-rnZfE
https://www.youtube.com/watch?v=U8urYejzUYw
https://www.youtube.com/watch?v=Bh1VOrRjX0E
https://www.youtube.com/watch?v=OWMwCE-EZL0
https://www.youtube.com/watch?v=ioiyyGBJ5Qo
