https://raw.githubusercontent.com/StevenDunn/CodeEval/master/NumberOperations/cpp/no.cpp
https://raw.githubusercontent.com/StevenDunn/CodeEval/master/NumberOperations/py2/no.py
https://raw.githubusercontent.com/nikai3d/ce-challenges/master/moderate/number_operations.c
https://raw.githubusercontent.com/nikai3d/ce-challenges/master/moderate/number_operations.go
https://raw.githubusercontent.com/nikai3d/ce-challenges/master/moderate/number_operations.hs
https://raw.githubusercontent.com/nikai3d/ce-challenges/master/moderate/number_operations.lua
https://raw.githubusercontent.com/nikai3d/ce-challenges/master/moderate/number_operations.rb
