https://raw.githubusercontent.com/nayuki/Project-Euler-solutions/master/java/p114.java
https://raw.githubusercontent.com/nayuki/Project-Euler-solutions/master/python/p114.py
https://www.mathblog.dk/project-euler-114-fill-row-with-blocks/
