http://www.hackingarticles.in/hack-billy-madison-vm-ctf-challenge/
https://www.youtube.com/watch?v=0gQiv_pkOPw
https://zeeshell.wordpress.com/2016/09/27/vulnhub-billy-madison-1-1-walkthrough-indonesian-unfinished/
https://aadityapurani.com/2016/09/28/billy-madison-1-1-walkthrough/
https://shad0whack.blogspot.com/2016/09/resolviendo-billy-madison-11-ctf.html
https://g0blin.co.uk/billy-madison-1-vulnhub-writeup/
https://m4ng0n3l.github.io/articles/2016-09/vulnhub-billy-madison
https://reversebrain.wordpress.com/2016/09/14/vulnhub-billy-madison-1/
http://www.mrb3n.com/?p=342
