https://rundata.wordpress.com/2013/03/21/overthewire-bandit-wargame-solutions-1-24/
https://infamoussyn.com/2013/11/08/overthewire-bandit-level-0-25-writeup-completed/
https://jdow.io/blog/2017/12/16/overthewire-bandit-wargame-walkthrough/#level-2---3
http://sp4hack.blogspot.com.co/2014/01/overthewire-bandit-level-3-to-level-4.html
https://raw.githubusercontent.com/Cathon/mySolutions/master/overthewire/Bandit/Level_3.md
https://raw.githubusercontent.com/lv22/otw-natas/master/L03/level3.txt
https://medium.com/@Kan1shka9/overthewire-wargames-bandit-walkthrough-df2b86826c67
https://github.com/milescrabill/overthewire-solutions/blob/master/Bandit.md#level-3
https://www.youtube.com/watch?v=34_DDIAkxdY
https://www.youtube.com/watch?v=_a7mOCmqsVI
https://www.youtube.com/watch?v=U8urYejzUYw
