https://raw.githubusercontent.com/nayuki/Project-Euler-solutions/master/java/p050.java
https://raw.githubusercontent.com/sile/euler.rs/master/euler_01/src/problem050.rs
https://raw.githubusercontent.com/smacke/project-euler/master/python/50.py
https://www.mathblog.dk/project-euler-50-sum-consecutive-primes/
