https://raw.githubusercontent.com/esbanarango/Competitive-Programming/master/CodeForces/158A%20-%20Next%20Round.cpp
https://raw.githubusercontent.com/yeicol/CodeForces/master/CF158ANextRound.java
https://raw.githubusercontent.com/changyuheng/codeforces-solutions/master/158a.py
https://cfsolv.blogspot.com/search/label/codeforces%20solution%20158A%20in%20c%20language
https://cfsolv.blogspot.com/search/label/codeforces%20solution%20158A
