https://www.youtube.com/watch?v=0OgsUPq-ezg
https://www.youtube.com/watch?v=CY63EbbbpUM
http://sp4hack.blogspot.com.co/2012/10/hack-this-site-realistic-9.html
https://www.aldeid.com/wiki/Hackthissite/Realistic/Level11
