https://www.youtube.com/watch?v=D_eLxW9QRcc
https://www.youtube.com/watch?v=165wuW92ypY
http://tricks247.blogspot.com.co/2011/06/hack-this-site-basic-mission-2-hts.html
http://www.amitghosh.net/hts-basic-mission-2-solution/
https://es.slideshare.net/ciskosv/hackthissite-3402645
https://www.youtube.com/watch?v=kWdd3UH7qIY
https://www.youtube.com/watch?v=RmWLedOOJd4
https://www.youtube.com/watch?v=W5AikgBGueY
https://www.youtube.com/watch?v=Y5SwVHFDj6A&feature=youtu.be&t=3m36s
http://blog.abhishekg.com/2011/12/basic-2-common-sense/
https://raw.githubusercontent.com/tiancode/learn-hacking/master/hackthissite/Basic.md
https://raw.githubusercontent.com/USCGA/writeups/master/hack_this_site/basic_missions/level2/README.md
http://truemiller.com/2017/09/hack-this-site-all-basic-solutions/#basic_2
