https://www.youtube.com/watch?v=J2I-5xPgyXk
https://www.absolomb.com/2018-04-14-HackTheBox-Inception/
https://forum.hackthebox.eu/discussion/666/inception-write-up-by-alamot
http://www.hackingarticles.in/hack-the-box-challenge-inception-walkthrough/
