https://www.youtube.com/watch?v=pwEV-VfBCG8
http://sp4hack.blogspot.com.co/2012/09/hack-this-site-application-1.html
http://tomearp.blogspot.com.co/2012/02/hack-this-site-application-challenges.html
https://www.youtube.com/watch?v=OzqpZUyQVuE
https://raw.githubusercontent.com/attilathedud/HackThisSite/master/Application/README.md
