https://raw.githubusercontent.com/ferhatelmas/algo/master/codeEval/medium/broken_lcd.py
https://raw.githubusercontent.com/StevenDunn/CodeEval/master/BrokenLCD/c/blcd.c
https://raw.githubusercontent.com/StevenDunn/CodeEval/master/BrokenLCD/cpp/blcd.cpp
https://raw.githubusercontent.com/nikai3d/ce-challenges/master/moderate/broken_lcd.lua
https://raw.githubusercontent.com/nikai3d/ce-challenges/master/moderate/broken_lcd.hs
https://raw.githubusercontent.com/nikai3d/ce-challenges/master/moderate/broken_lcd.go
