https://github.com/bakerhamilton/Coderbyte-solutions/raw/master/LongestWord.java
https://github.com/bolducp/coderbyte/raw/master/easy/03_longest_word.py
https://raw.githubusercontent.com/ZLester/Coderbyte-Solutions/master/Easy/03%20-%20Longest%20Word.js
https://raw.githubusercontent.com/Nigelmnz/CoderbyteSolutions/master/03-LongestWord/3.hs
