4
3
-9 7 -6
9 1 -5
-5 -9 -1
4 6 -3
4
-6 -9 -5 -9
-1 -3 3 5
7 8 -6 3
3 -3 5 -8
4 -1 7 2
4
-8 -5 -8 5
4 8 -8 3
-8 8 -4 -1
-7 3 8 2
8 1 -6 1
5
-6 -9 -6 -6 -4
5 -4 -5 -2 -4
-2 -6 8 4 8
5 6 7 5 -4
-2 8 -3 2 -7
3 -3 -2 7 4
