https://raw.githubusercontent.com/vfarcic/TechnologyConversationsJava/master/src/test/java/com/technologyconversations/learning/kata/solutions/ReversePolishNotationTest.java
https://gist.githubusercontent.com/viebel/3d0f146484989b0c5afc29e53e3e9f2c/raw/aa0b775f100c99c6dd2274ea16224732c1b34708/reverse_polish_evaluator.py
https://gist.githubusercontent.com/AjayMT/7805180/raw/72d9e46815abd6c2c1e22fb0fa4785ac7e785d1b/calc.rb
https://raw.githubusercontent.com/JesseClarkND/codeabbey_in_C-NET/master/Reverse%20Polish%20Notation
