https://raw.githubusercontent.com/RyanFehr/HackerRank/master/Algorithms/Search/Pairs/Solution.cpp
https://www.youtube.com/watch?v=7kN3DVc5R7I
https://raw.githubusercontent.com/ehotinger/HackerRank/master/Pairs/Solution.java
https://raw.githubusercontent.com/mminer/hackerrank/master/pairs.py
