https://www.mathblog.dk/project-euler-18/
https://raw.githubusercontent.com/nayuki/Project-Euler-solutions/master/java/p018.java
https://raw.githubusercontent.com/nayuki/Project-Euler-solutions/master/mathematica/p018.mathematica
https://raw.githubusercontent.com/smacke/project-euler/master/python/18.py
https://raw.githubusercontent.com/zsiciarz/euler.rs/master/src/solutions/problem18.rs
