https://nopsrus.blogspot.com.co/2012/07/solution-for-net-forcenl-level-601-keep.html
https://raw.githubusercontent.com/djcomidi/netforce/master/programming/level601/solution.py
https://raw.githubusercontent.com/luceatnobis/challenges/master/net-force.nl/keep_walking/keep.pl
