http://winkar.github.io/2015/01/24/wechall.html
https://raw.githubusercontent.com/james9909/PracticeCTF/master/WeChall/Enlightenment/Solution.py
https://github.com/CyrilP/wechall/blob/master/Enlightment.java
http://www.cnblogs.com/zhurb/p/5856678.html
http://joizel.readthedocs.io/ko/latest/misc/[wechall]%20enlightment.html
http://researchport.tistory.com/17
https://www.wechall.net/tr/forum-t628/My_solution.html#post4660
https://www.wechall.net/tr/forum-t1200/C_solution.html#post6505
https://raw.githubusercontent.com/mattfeng/ctf-prep/master/wechall/enlightenment/sol.py
https://joizel.readthedocs.io/ko/latest/wargame/misc/[wechall]%20enlightment.html
