https://raw.githubusercontent.com/mpillar/codeeval/master/1-moderate/lost-in-translation/main.py
https://raw.githubusercontent.com/pluralism/CodeEval/master/Lost%20In%20Translation%20.rb
https://raw.githubusercontent.com/pascal-bourut/codeeval-challenges/master/moderate/121%20-%20Lost%20In%20Translation/121.js
https://raw.githubusercontent.com/pascal-bourut/codeeval-challenges/master/moderate/121%20-%20Lost%20In%20Translation/121.php
https://raw.githubusercontent.com/nikai3d/ce-challenges/master/moderate/lost_in_translation.lua
https://raw.githubusercontent.com/nikai3d/ce-challenges/master/moderate/lost_in_translation.hs
https://raw.githubusercontent.com/nikai3d/ce-challenges/master/moderate/lost_in_translation.go
https://raw.githubusercontent.com/nikai3d/ce-challenges/master/moderate/lost_in_translation.c
