https://raw.githubusercontent.com/ThomasZumsteg/exercism-javascript/master/leap/leap.js
https://raw.githubusercontent.com/rootulp/exercism/master/python/leap/leap.py
https://raw.githubusercontent.com/rootulp/exercism/master/ruby/exercises/leap/year.rb
