https://raw.githubusercontent.com/igor-kutepov/codeabbey/master/src/main/java/com/kutepov/samples/codeabbey/LifeIsSimple.java
https://raw.githubusercontent.com/Xzya/CodeAbbeySolutions/master/LifeIsSimple.py
https://raw.githubusercontent.com/JesseClarkND/codeabbey_in_C-NET/master/Life%20is%20Simple
