https://github.com/smholsen/backdoorctf/tree/master/beginners/2013-misc-75#2013-misc-75
https://www.youtube.com/watch?v=8hq9Kx4qtxY
https://gist.githubusercontent.com/hvardhanx/1a314f7c29a9db6716ed6a36c3ee795e/raw/33996d21f3d24414b170f499dc83e5e54108b6f2/backdoor-ctf-2013-MISC-75.py
https://gist.githubusercontent.com/LComplex/ba6bd2f4a8ed68e2afb7/raw/0b5f93ed2c256b65e5e09e7aec566126fd11ba5a/2013-MISC-75%2520pts.py
