https://raw.githubusercontent.com/linuxp3nguin/microcorruption-1/master/CTF/AL
https://rakshacks.wordpress.com/2016/08/19/microcorruption-algiers/
https://www.youtube.com/watch?v=FHuAWG61WC0
https://github.com/ciz/microcorruption#algiers
