https://www.mathblog.dk/project-euler-13/
https://raw.githubusercontent.com/nayuki/Project-Euler-solutions/master/java/p013.java
https://raw.githubusercontent.com/nayuki/Project-Euler-solutions/master/mathematica/p013.mathematica
https://raw.githubusercontent.com/smacke/project-euler/master/python/13.py
https://raw.githubusercontent.com/zsiciarz/euler.rs/master/src/solutions/problem13.rs
