0 0 0 0 0 0 1 0 0 0 1 0 1 0 0 0 0 0 0 0
0: 0 3 13
1: 1 6 7
2: 2 10 14
3: 0 1 3
4: 4 17 18
5: 5 11 12
6: 5 6 16
7: 7 9 12
8: 2 8 14
9: 5 7 9
10: 10 11 12
11: 3 11 17
12: 8 12 13
13: 8 13 19
14: 6 14
15: 11 15 19
16: 1 5 16
17: 6 14 17
18: 9 14 18
19: 14 15 19
