https://raw.githubusercontent.com/TheAaronCovington/Java-Coderbyte-Solutions/master/16ArithGeo.java
https://raw.githubusercontent.com/ZLester/Coderbyte-Solutions/master/Easy/16%20-%20Arith%20Geo.js
https://raw.githubusercontent.com/Nigelmnz/CoderbyteSolutions/master/16-ArithGeo/16.hs
