https://www.youtube.com/watch?v=MrFfn0oAIVw
https://alexandervoidstar.wordpress.com/2015/07/26/hackthis-basic-level-2-2/
https://www.youtube.com/watch?v=FDJr4yKsmrw
https://www.youtube.com/watch?v=kItBXU8YeFI
https://www.youtube.com/watch?v=QS7pn9Uuw8s
http://sjbuzz.net/video/watch/vid01FDJr4yKsmrw
http://sjbuzz.net/video/watch/vid01jwZyN_K5_y0
https://www.youtube.com/watch?v=16aywpiFpfs
https://hackinblood.lasermark.co/basic-hackthis-co-uk-2/
