https://github.com/BirkhoffLee/wechall/tree/master/exploit/No%20Escape
https://github.com/james9909/PracticeCTF/blob/master/WeChall/No-Escape/Solution.txt
https://medium.com/bugbountywriteup/wechall-wargame-solutions-76f60ea39b16
