https://raw.githubusercontent.com/adityagupta1089/Codeforces-Solutions/master/P69A.java
https://raw.githubusercontent.com/AkashChandrakar/codeforces-solutions/master/c%2B%2B/69-A-15510637.cpp
https://raw.githubusercontent.com/dwiajik/codeforces/master/69A.py
