https://raw.githubusercontent.com/codejoydo/codeforces/master/50a.c
https://raw.githubusercontent.com/nikzsaz/Codeforces-solution/master/50A-DominoPiling.cpp
https://raw.githubusercontent.com/yeicol/CodeForces/master/CF050ADominoPiling.java
