27
3 2 2 2 2
2 5 1 6 5
5 1 5 4 6
2 3 4 5 1
2 3 4 5 1
2 3 4 5 1
1 1 1 1 1
2 3 4 5 1
2 3 4 5 1
2 3 4 5 6
4 5 3 6 5
5 4 6 5 1
6 5 1 5 1
2 3 4 5 1
4 2 4 5 5
1 6 1 4 3
3 6 4 1 3
2 3 4 5 6
2 3 4 5 1
6 6 4 1 4
3 4 1 1 6
5 4 2 5 4
2 3 4 5 1
6 3 6 3 5
5 5 2 4 4
4 2 4 6 5
1 5 2 2 4
four
pair
pair
small-straight
small-straight
small-straight
yacht
small-straight
small-straight
big-straight
pair
pair
two-pairs
small-straight
two-pairs
pair
pair
big-straight
small-straight
two-pairs
pair
two-pairs
small-straight
two-pairs
two-pairs
pair
pair
