https://raw.githubusercontent.com/nayuki/Project-Euler-solutions/master/java/p032.java
https://raw.githubusercontent.com/zsiciarz/euler.rs/master/src/solutions/problem32.rs
https://raw.githubusercontent.com/kdungs/euler/master/032/euler_32.py
https://www.mathblog.dk/project-euler-32-pandigital-products/
