https://raw.githubusercontent.com/dwiajik/codeforces/master/110A.py
https://raw.githubusercontent.com/nikzsaz/Codeforces-solution/master/110A-NearlyLuckyNumber.cpp
https://raw.githubusercontent.com/mkirsche/Codeforces/master/110-A/110-A-822283.java
https://raw.githubusercontent.com/Erfaniaa/Codeforces/master/110A-NearlyLuckyNumber.pas
