https://raw.githubusercontent.com/ShrikantJadhav/HackerRank-Solutions/master/AngryChildrens.cpp
https://raw.githubusercontent.com/LLcoolNJ/HackerRank-Solution/master/Algorithm/Angry%20Children.java
https://raw.githubusercontent.com/guiambros/hackerrank/master/warmpup/angry_children.py
https://raw.githubusercontent.com/MaskRay/HackerRank/master/angry-children.rb
https://raw.githubusercontent.com/andrewrk/hackerrank/master/angry-children/main.rs
https://www.martinkysel.com/hackerrank-max-min-solution/
