https://raw.githubusercontent.com/Transfusion/hackerrank-solutions/master/Insertion%20Sort%20-%20Part%202/insertionsort2.c
https://raw.githubusercontent.com/BlakeBrown/HackerRank-Solutions/master/Algorithms/Sorting/Insertion%20Sort%20-%20Part%202.cpp
https://julienrenaux.fr/2017/02/06/hackerrank-efficient-algorithm-solutions-in-javascript/#Insertion_Sort_8211_Part_2
http://www.w3programmers.com/insertion-sort-part-2/
https://raw.githubusercontent.com/charles-wangkai/hackerrank/master/insertionsort2/Solution.java
https://raw.githubusercontent.com/ynyeh0221/HackerRank/master/Insertion%20Sort%20-%20Part%202.py
