https://rundata.wordpress.com/2013/04/02/overthewire-wargame-solution-3/
https://jhalon.github.io/over-the-wire-leviathan/
https://www.youtube.com/watch?v=I6Ns7R7paJY&t=925s
http://blog.zairo.kr/entry/OverTheWire-%E2%80%93-Leviathan-Level-3?category=570140
