https://raw.githubusercontent.com/edeng/CodeEval/master/Easy/Fibonacci.java
https://gist.githubusercontent.com/yuheiomori/2571467/raw/d48740aa4278e5eb3d85bdb572d9b35fb5e97d42/fibonacci_series.py
https://gist.githubusercontent.com/yuheiomori/7227865/raw/92ce3ce8ec3afb0611b05ee79e88fe5c6e9201e3/fibonacci_series.go
https://raw.githubusercontent.com/leaen/Codeeval-solutions/master/fibonacci-series.lua
https://raw.githubusercontent.com/thiagoalessio/codeeval/master/easy/fibonacci-series/solution.php
https://raw.githubusercontent.com/thiagoalessio/codeeval/master/easy/fibonacci-series/solution.js
https://raw.githubusercontent.com/thiagoalessio/codeeval/master/easy/fibonacci-series/solution.rb
