http://sp4hack.blogspot.com.co/2012/11/theblacksheep-javascript-4-hard-but.html
http://nopsrus.blogspot.com.co/2012/07/solution-for-bright-shadowsnet_2222.html
https://www.youtube.com/watch?v=PyGLSLH_NPs
