https://raw.githubusercontent.com/Mitame/hackerrank-solutions/master/algorithms/implementation/fair-rations.c
https://raw.githubusercontent.com/shivam2207/HackerRank-Solutions/master/fairrations.cpp
https://raw.githubusercontent.com/RyanFehr/HackerRank/master/Algorithms/Implementation/Fair%20Rations/Solution.cs
https://raw.githubusercontent.com/charles-wangkai/hackerrank/master/fair-rations/Solution.java
https://raw.githubusercontent.com/tzookb/hackerrank/master/hourrank/9/fair-rations/sol.js
https://raw.githubusercontent.com/sapanz/Hackerrank-Python-Solutions/master/Fair%20Rations/Fair_Rations.py
https://raw.githubusercontent.com/rootulp/hackerrank/master/ruby/fair_rations.rb
