http://discuss.spoj.com/t/the-bulk-classical-prob-7/2755/5
https://raw.githubusercontent.com/maweaver/Exercises/master/spoj/bulk.c
https://raw.githubusercontent.com/Neroysq/Neroysq-SPOJ/master/Codes/BULK.cpp
