https://www.youtube.com/watch?v=ttuFDV1ZR1U
https://research.g0blin.co.uk/sokar-vulnhub-writeup/
https://piyr9.github.io/sokar/
http://vagmour.eu/sokar-hacking-challenge/
http://devloop.users.sourceforge.net/index.php?article115/solution-du-ctf-sokar-de-vulnhub
http://blog.pentests.pl/2015/02/shockar-whos-apophis-shortcut-run.html
https://highon.coffee/blog/sokar-walkthrough/
http://www.mogozobo.com/?p=2263
https://leonjza.github.io/blog/2015/02/21/beating-sokar-the-vulnhub-turns-0b10-challenge/
http://rastamouse.me/blog/2015/sokar-authors-narrative/
https://drive.google.com/file/d/0B9QOE5R2Tal1c2FWTVdraTNteVk/view
https://hml.io/assets/post-2015-02-21-sokar-walkthrough/Walkthrough%20for%20Sokar%20-%20Emre%20Bastuz%20-%20v1.00.pdf
https://www.youtube.com/watch?v=k6ri-LFWEj4
